%!PS-Adobe-2.0 EPSF-2.0
%%BoundingBox: 0 5 121 147
%%HiResBoundingBox: 0.000000 5.500000 121.000000 147.000000
%Produced by poppler pdftops version: 0.26.5 (http://poppler.freedesktop.org)
%%Creator: 
%%LanguageLevel: 2
%%DocumentMedia: 46x53mm 131 152 0 () ()
%%EndComments
% EPSF created by ps2eps 1.68
%%BeginProlog
save
countdictstack
mark
newpath
/showpage {} def
/setpagedevice {pop} def
%%EndProlog
%%Page 1 1
%%BeginProlog
%%BeginResource: procset xpdf 3.00 0
%%Copyright: Copyright 1996-2011 Glyph & Cog, LLC
/xpdf 75 dict def xpdf begin
% PDF special state
/pdfDictSize 15 def
/pdfSetup {
  /setpagedevice where {
    pop 2 dict begin
      /Policies 1 dict dup begin /PageSize 6 def end def
      { /Duplex true def } if
    currentdict end setpagedevice
  } {
    pop
  } ifelse
} def
/pdfSetupPaper {
  % Change paper size, but only if different from previous paper size otherwise
  % duplex fails. PLRM specifies a tolerance of 5 pts when matching paper size
  % so we use the same when checking if the size changes.
  /setpagedevice where {
    pop currentpagedevice
    /PageSize known {
      2 copy
      currentpagedevice /PageSize get aload pop
      exch 4 1 roll
      sub abs 5 gt
      3 1 roll
      sub abs 5 gt
      or
    } {
      true
    } ifelse
    {
      2 array astore
      2 dict begin
        /PageSize exch def
        /ImagingBBox null def
      currentdict end
      setpagedevice
    } {
      pop pop
    } ifelse
  } {
    pop
  } ifelse
} def
/pdfStartPage {
  pdfDictSize dict begin
  /pdfFillCS [] def
  /pdfFillXform {} def
  /pdfStrokeCS [] def
  /pdfStrokeXform {} def
  /pdfFill [0] def
  /pdfStroke [0] def
  /pdfFillOP false def
  /pdfStrokeOP false def
  /pdfLastFill false def
  /pdfLastStroke false def
  /pdfTextMat [1 0 0 1 0 0] def
  /pdfFontSize 0 def
  /pdfCharSpacing 0 def
  /pdfTextRender 0 def
  /pdfPatternCS false def
  /pdfTextRise 0 def
  /pdfWordSpacing 0 def
  /pdfHorizScaling 1 def
  /pdfTextClipPath [] def
} def
/pdfEndPage { end } def
% PDF color state
/cs { /pdfFillXform exch def dup /pdfFillCS exch def
      setcolorspace } def
/CS { /pdfStrokeXform exch def dup /pdfStrokeCS exch def
      setcolorspace } def
/sc { pdfLastFill not { pdfFillCS setcolorspace } if
      dup /pdfFill exch def aload pop pdfFillXform setcolor
     /pdfLastFill true def /pdfLastStroke false def } def
/SC { pdfLastStroke not { pdfStrokeCS setcolorspace } if
      dup /pdfStroke exch def aload pop pdfStrokeXform setcolor
     /pdfLastStroke true def /pdfLastFill false def } def
/op { /pdfFillOP exch def
      pdfLastFill { pdfFillOP setoverprint } if } def
/OP { /pdfStrokeOP exch def
      pdfLastStroke { pdfStrokeOP setoverprint } if } def
/fCol {
  pdfLastFill not {
    pdfFillCS setcolorspace
    pdfFill aload pop pdfFillXform setcolor
    pdfFillOP setoverprint
    /pdfLastFill true def /pdfLastStroke false def
  } if
} def
/sCol {
  pdfLastStroke not {
    pdfStrokeCS setcolorspace
    pdfStroke aload pop pdfStrokeXform setcolor
    pdfStrokeOP setoverprint
    /pdfLastStroke true def /pdfLastFill false def
  } if
} def
% build a font
/pdfMakeFont {
  4 3 roll findfont
  4 2 roll matrix scale makefont
  dup length dict begin
    { 1 index /FID ne { def } { pop pop } ifelse } forall
    /Encoding exch def
    currentdict
  end
  definefont pop
} def
/pdfMakeFont16 {
  exch findfont
  dup length dict begin
    { 1 index /FID ne { def } { pop pop } ifelse } forall
    /WMode exch def
    currentdict
  end
  definefont pop
} def
% graphics state operators
/q { gsave pdfDictSize dict begin } def
/Q {
  end grestore
  /pdfLastFill where {
    pop
    pdfLastFill {
      pdfFillOP setoverprint
    } {
      pdfStrokeOP setoverprint
    } ifelse
  } if
} def
/cm { concat } def
/d { setdash } def
/i { setflat } def
/j { setlinejoin } def
/J { setlinecap } def
/M { setmiterlimit } def
/w { setlinewidth } def
% path segment operators
/m { moveto } def
/l { lineto } def
/c { curveto } def
/re { 4 2 roll moveto 1 index 0 rlineto 0 exch rlineto
      neg 0 rlineto closepath } def
/h { closepath } def
% path painting operators
/S { sCol stroke } def
/Sf { fCol stroke } def
/f { fCol fill } def
/f* { fCol eofill } def
% clipping operators
/W { clip newpath } def
/W* { eoclip newpath } def
/Ws { strokepath clip newpath } def
% text state operators
/Tc { /pdfCharSpacing exch def } def
/Tf { dup /pdfFontSize exch def
      dup pdfHorizScaling mul exch matrix scale
      pdfTextMat matrix concatmatrix dup 4 0 put dup 5 0 put
      exch findfont exch makefont setfont } def
/Tr { /pdfTextRender exch def } def
/Tp { /pdfPatternCS exch def } def
/Ts { /pdfTextRise exch def } def
/Tw { /pdfWordSpacing exch def } def
/Tz { /pdfHorizScaling exch def } def
% text positioning operators
/Td { pdfTextMat transform moveto } def
/Tm { /pdfTextMat exch def } def
% text string operators
/xyshow where {
  pop
  /xyshow2 {
    dup length array
    0 2 2 index length 1 sub {
      2 index 1 index 2 copy get 3 1 roll 1 add get
      pdfTextMat dtransform
      4 2 roll 2 copy 6 5 roll put 1 add 3 1 roll dup 4 2 roll put
    } for
    exch pop
    xyshow
  } def
}{
  /xyshow2 {
    currentfont /FontType get 0 eq {
      0 2 3 index length 1 sub {
        currentpoint 4 index 3 index 2 getinterval show moveto
        2 copy get 2 index 3 2 roll 1 add get
        pdfTextMat dtransform rmoveto
      } for
    } {
      0 1 3 index length 1 sub {
        currentpoint 4 index 3 index 1 getinterval show moveto
        2 copy 2 mul get 2 index 3 2 roll 2 mul 1 add get
        pdfTextMat dtransform rmoveto
      } for
    } ifelse
    pop pop
  } def
} ifelse
/cshow where {
  pop
  /xycp {
    0 3 2 roll
    {
      pop pop currentpoint 3 2 roll
      1 string dup 0 4 3 roll put false charpath moveto
      2 copy get 2 index 2 index 1 add get
      pdfTextMat dtransform rmoveto
      2 add
    } exch cshow
    pop pop
  } def
}{
  /xycp {
    currentfont /FontType get 0 eq {
      0 2 3 index length 1 sub {
        currentpoint 4 index 3 index 2 getinterval false charpath moveto
        2 copy get 2 index 3 2 roll 1 add get
        pdfTextMat dtransform rmoveto
      } for
    } {
      0 1 3 index length 1 sub {
        currentpoint 4 index 3 index 1 getinterval false charpath moveto
        2 copy 2 mul get 2 index 3 2 roll 2 mul 1 add get
        pdfTextMat dtransform rmoveto
      } for
    } ifelse
    pop pop
  } def
} ifelse
/Tj {
  fCol
  0 pdfTextRise pdfTextMat dtransform rmoveto
  currentpoint 4 2 roll
  pdfTextRender 1 and 0 eq {
    2 copy xyshow2
  } if
  pdfTextRender 3 and dup 1 eq exch 2 eq or {
    3 index 3 index moveto
    2 copy
    currentfont /FontType get 3 eq { fCol } { sCol } ifelse
    xycp currentpoint stroke moveto
  } if
  pdfTextRender 4 and 0 ne {
    4 2 roll moveto xycp
    /pdfTextClipPath [ pdfTextClipPath aload pop
      {/moveto cvx}
      {/lineto cvx}
      {/curveto cvx}
      {/closepath cvx}
    pathforall ] def
    currentpoint newpath moveto
  } {
    pop pop pop pop
  } ifelse
  0 pdfTextRise neg pdfTextMat dtransform rmoveto
} def
/TJm { 0.001 mul pdfFontSize mul pdfHorizScaling mul neg 0
       pdfTextMat dtransform rmoveto } def
/TJmV { 0.001 mul pdfFontSize mul neg 0 exch
        pdfTextMat dtransform rmoveto } def
/Tclip { pdfTextClipPath cvx exec clip newpath
         /pdfTextClipPath [] def } def
/Tclip* { pdfTextClipPath cvx exec eoclip newpath
         /pdfTextClipPath [] def } def
% Level 2/3 image operators
/pdfImBuf 100 string def
/pdfImStr {
  2 copy exch length lt {
    2 copy get exch 1 add exch
  } {
    ()
  } ifelse
} def
/skipEOD {
  { currentfile pdfImBuf readline
    not { pop exit } if
    (%-EOD-) eq { exit } if } loop
} def
/pdfIm { image skipEOD } def
/pdfImM { fCol imagemask skipEOD } def
/pr { 2 index 2 index 3 2 roll putinterval 4 add } def
/pdfImClip {
  gsave
  0 2 4 index length 1 sub {
    dup 4 index exch 2 copy
    get 5 index div put
    1 add 3 index exch 2 copy
    get 3 index div put
  } for
  pop pop rectclip
} def
/pdfImClipEnd { grestore } def
% shading operators
/colordelta {
  false 0 1 3 index length 1 sub {
    dup 4 index exch get 3 index 3 2 roll get sub abs 0.004 gt {
      pop true
    } if
  } for
  exch pop exch pop
} def
/funcCol { func n array astore } def
/funcSH {
  dup 0 eq {
    true
  } {
    dup 6 eq {
      false
    } {
      4 index 4 index funcCol dup
      6 index 4 index funcCol dup
      3 1 roll colordelta 3 1 roll
      5 index 5 index funcCol dup
      3 1 roll colordelta 3 1 roll
      6 index 8 index funcCol dup
      3 1 roll colordelta 3 1 roll
      colordelta or or or
    } ifelse
  } ifelse
  {
    1 add
    4 index 3 index add 0.5 mul exch 4 index 3 index add 0.5 mul exch
    6 index 6 index 4 index 4 index 4 index funcSH
    2 index 6 index 6 index 4 index 4 index funcSH
    6 index 2 index 4 index 6 index 4 index funcSH
    5 3 roll 3 2 roll funcSH pop pop
  } {
    pop 3 index 2 index add 0.5 mul 3 index  2 index add 0.5 mul
    funcCol sc
    dup 4 index exch mat transform m
    3 index 3 index mat transform l
    1 index 3 index mat transform l
    mat transform l pop pop h f*
  } ifelse
} def
/axialCol {
  dup 0 lt {
    pop t0
  } {
    dup 1 gt {
      pop t1
    } {
      dt mul t0 add
    } ifelse
  } ifelse
  func n array astore
} def
/axialSH {
  dup 0 eq {
    true
  } {
    dup 8 eq {
      false
    } {
      2 index axialCol 2 index axialCol colordelta
    } ifelse
  } ifelse
  {
    1 add 3 1 roll 2 copy add 0.5 mul
    dup 4 3 roll exch 4 index axialSH
    exch 3 2 roll axialSH
  } {
    pop 2 copy add 0.5 mul
    axialCol sc
    exch dup dx mul x0 add exch dy mul y0 add
    3 2 roll dup dx mul x0 add exch dy mul y0 add
    dx abs dy abs ge {
      2 copy yMin sub dy mul dx div add yMin m
      yMax sub dy mul dx div add yMax l
      2 copy yMax sub dy mul dx div add yMax l
      yMin sub dy mul dx div add yMin l
      h f*
    } {
      exch 2 copy xMin sub dx mul dy div add xMin exch m
      xMax sub dx mul dy div add xMax exch l
      exch 2 copy xMax sub dx mul dy div add xMax exch l
      xMin sub dx mul dy div add xMin exch l
      h f*
    } ifelse
  } ifelse
} def
/radialCol {
  dup t0 lt {
    pop t0
  } {
    dup t1 gt {
      pop t1
    } if
  } ifelse
  func n array astore
} def
/radialSH {
  dup 0 eq {
    true
  } {
    dup 8 eq {
      false
    } {
      2 index dt mul t0 add radialCol
      2 index dt mul t0 add radialCol colordelta
    } ifelse
  } ifelse
  {
    1 add 3 1 roll 2 copy add 0.5 mul
    dup 4 3 roll exch 4 index radialSH
    exch 3 2 roll radialSH
  } {
    pop 2 copy add 0.5 mul dt mul t0 add
    radialCol sc
    encl {
      exch dup dx mul x0 add exch dup dy mul y0 add exch dr mul r0 add
      0 360 arc h
      dup dx mul x0 add exch dup dy mul y0 add exch dr mul r0 add
      360 0 arcn h f
    } {
      2 copy
      dup dx mul x0 add exch dup dy mul y0 add exch dr mul r0 add
      a1 a2 arcn
      dup dx mul x0 add exch dup dy mul y0 add exch dr mul r0 add
      a2 a1 arcn h
      dup dx mul x0 add exch dup dy mul y0 add exch dr mul r0 add
      a1 a2 arc
      dup dx mul x0 add exch dup dy mul y0 add exch dr mul r0 add
      a2 a1 arc h f
    } ifelse
  } ifelse
} def
end
%%EndResource
%%EndProlog
%%BeginSetup
xpdf begin
false pdfSetup
%%EndSetup
%%Page: 1 1
%%PageMedia: 46x53mm
%%PageBoundingBox: 0 0 131 152
%%PageOrientation: Portrait
%%BeginPageSetup
131 152 pdfSetupPaper
pdfStartPage
0 0 131 152 re W
%%EndPageSetup
[] 0 d
1 i
0 j
0 J
10 M
1 w
/DeviceGray {} cs
[0] sc
/DeviceGray {} CS
[0] SC
false op
false OP
{} settransfer
q
/DeviceRGB {} cs
[0 0 0] sc
/DeviceRGB {} CS
[0 0 0] SC
[1 0 0 -1 0 152] cm
q
q
Q
Q
q
q
Q
q
/DeviceRGB {} cs
[0 0 0] sc
[0 0 0] sc
[0 0 0] SC
1 w
2 J
0 j
[] 0 d
Q
Q
q
0 0 131 152 re
W*
q
/DeviceRGB {} cs
[0 0 0] sc
[0 0 0] sc
[0 0 0] SC
1 w
2 J
0 j
[] 0 d
Q
q
/DeviceRGB {} cs
[0 0 0] sc
[1 1 1] sc
0 0 131 151 re
f
Q
q
/DeviceRGB {} cs
[0 0 0] sc
[0 0 0] sc
[0 0 0] SC
1 w
2 J
0 j
[] 0 d
Q
Q
q
0 0 131 152 re
W*
0 0 131 151 re
W*
q
/DeviceRGB {} cs
[0 0 0] sc
[0 0 0] sc
[0 0 0] SC
1 w
2 J
0 j
[] 0 d
Q
q
[1 0 0 1 0.5 0.5] cm
/DeviceRGB {} cs
[0 0 0] sc
[0 0 0] sc
[0 0 0] SC
1 w
2 J
0 j
[] 0 d
Q
q
/DeviceRGB {} cs
[0 0 0] sc
[1 1 1] sc
120.5 50.5 m
120.5 72.59139 93.637085 90.5 60.5 90.5 c
27.362915 90.5 0.5 72.59139 0.5 50.5 c
0.5 28.40861 27.362915 10.5 60.5 10.5 c
93.637085 10.5 120.5 28.40861 120.5 50.5 c
h
f
Q
q
[1 0 0 1 0.5 0.5] cm
[0 0 0] SC
1 w
0 J
0 j
[] 0 d
120 50 m
120 72.09139 93.137085 90 60 90 c
26.862915 90 0 72.09139 0 50 c
0 27.90861 26.862915 10 60 10 c
93.137085 10 120 27.90861 120 50 c
h
S
/DeviceRGB {} cs
[0 0 0] sc
[0 0 0] sc
[0 0 0] SC
1 w
2 J
0 j
[] 0 d
Q
q
/DeviceRGB {} cs
[0 0 0] sc
[0 0 0] sc
[0 0 0] SC
1 w
2 J
0 j
[] 0 d
Q
q
[1 0 0 1 0.5 0.5] cm
/DeviceRGB {} cs
[0 0 0] sc
[0 0 0] sc
[0 0 0] SC
1 w
2 J
0 j
[] 0 d
Q
q
/DeviceRGB {} cs
[0 0 0] sc
[1 1 1] sc
90.5 50.5 m
90.5 61.545695 72.59139 70.5 50.5 70.5 c
28.40861 70.5 10.5 61.545695 10.5 50.5 c
10.5 39.454305 28.40861 30.5 50.5 30.5 c
72.59139 30.5 90.5 39.454305 90.5 50.5 c
h
f
Q
q
[1 0 0 1 0.5 0.5] cm
[0 0 0] SC
1 w
0 J
0 j
[] 0 d
90 50 m
90 61.045695 72.09139 70 50 70 c
27.90861 70 10 61.045695 10 50 c
10 38.954305 27.90861 30 50 30 c
72.09139 30 90 38.954305 90 50 c
h
S
/DeviceRGB {} cs
[0 0 0] sc
[0 0 0] sc
[0 0 0] SC
1 w
2 J
0 j
[] 0 d
Q
q
/DeviceRGB {} cs
[0 0 0] sc
[0 0 0] sc
[0 0 0] SC
1 w
2 J
0 j
[] 0 d
Q
q
[1 0 0 1 0.5 0.5] cm
/DeviceRGB {} cs
[0 0 0] sc
[0 0 0] sc
[0 0 0] SC
1 w
2 J
0 j
[] 0 d
Q
q
/DeviceRGB {} cs
[0 0 0] sc
[0 0 0] sc
[0 0 0] SC
1 w
2 J
0 j
[] 0 d
Q
q
[1 0 0 1 105 4] cm
/DeviceRGB {} cs
[0 0 0] sc
[0 0 0] sc
[0 0 0] SC
1 w
2 J
0 j
[] 0 d
[0 0 0] SC
0 w
2 J
2 j
[] 0 d
q
/DeviceRGB {} cs
[0 0 0] sc
[0 0 0] sc
Q
Q
q
/DeviceRGB {} cs
[0 0 0] sc
[0 0 0] sc
113.177734 5.392578 m
113.177734 6.417969 l
110.277343 6.417969 l
110.277343 14 l
109.09375 14 l
109.09375 6.417969 l
106.193359 6.417969 l
106.193359 5.392578 l
113.177734 5.392578 l
h
f
Q
q
[1 0 0 1 105 4] cm
/DeviceRGB {} cs
[0 0 0] sc
[0 0 0] sc
[0 0 0] SC
0 w
2 J
2 j
[] 0 d
q
Q
[0 0 0] SC
1 w
2 J
0 j
[] 0 d
Q
q
/DeviceRGB {} cs
[0 0 0] sc
[0 0 0] sc
[0 0 0] SC
1 w
2 J
0 j
[] 0 d
Q
q
[1 0 0 1 0.5 0.5] cm
/DeviceRGB {} cs
[0 0 0] sc
[0 0 0] sc
[0 0 0] SC
1 w
2 J
0 j
[] 0 d
Q
q
/DeviceRGB {} cs
[0 0 0] sc
[0 0 0] sc
[0 0 0] SC
1 w
2 J
0 j
[] 0 d
Q
q
[1 0 0 1 85 24] cm
/DeviceRGB {} cs
[0 0 0] sc
[0 0 0] sc
[0 0 0] SC
1 w
2 J
0 j
[] 0 d
[0 0 0] SC
0 w
2 J
2 j
[] 0 d
q
/DeviceRGB {} cs
[0 0 0] sc
[0 0 0] sc
Q
Q
q
/DeviceRGB {} cs
[0 0 0] sc
[0 0 0] sc
87.652344 34 m
86.246094 34 l
89.328125 29.587891 l
86.439453 25.392578 l
87.898437 25.392578 l
90.095703 28.685547 l
92.275391 25.392578 l
93.664063 25.392578 l
90.775391 29.587891 l
93.804688 34 l
92.357422 34 l
90.037109 30.460937 l
87.652344 34 l
h
f
Q
q
[1 0 0 1 85 24] cm
/DeviceRGB {} cs
[0 0 0] sc
[0 0 0] sc
[0 0 0] SC
0 w
2 J
2 j
[] 0 d
q
Q
[0 0 0] SC
1 w
2 J
0 j
[] 0 d
Q
q
/DeviceRGB {} cs
[0 0 0] sc
[0 0 0] sc
[0 0 0] SC
1 w
2 J
0 j
[] 0 d
Q
q
[1 0 0 1 0.5 0.5] cm
/DeviceRGB {} cs
[0 0 0] sc
[0 0 0] sc
[0 0 0] SC
1 w
2 J
0 j
[] 0 d
[0 0 0] SC
1 w
0 J
0 j
[] 0 d
42 71 m
49.139999 123.690002 l
S
/DeviceRGB {} cs
[0 0 0] sc
[0 0 0] sc
[0 0 0] SC
1 w
2 J
0 j
[] 0 d
Q
q
/DeviceRGB {} cs
[0 0 0] sc
[0 0 0] sc
50.349998 129.389999 m
45.939999 122.93 l
49.639999 124.190002 l
52.880001 121.989997 l
50.349998 129.389999 l
h
f
Q
q
[1 0 0 1 0.5 0.5] cm
[0 0 0] SC
1 w
0 J
0 j
[] 0 d
49.849998 128.889999 m
45.439999 122.43 l
49.139999 123.690002 l
52.380001 121.489997 l
49.849998 128.889999 l
h
S
/DeviceRGB {} cs
[0 0 0] sc
[0 0 0] sc
[0 0 0] SC
1 w
2 J
0 j
[] 0 d
Q
q
/DeviceRGB {} cs
[0 0 0] sc
[0 0 0] sc
[0 0 0] SC
1 w
2 J
0 j
[] 0 d
Q
q
[1 0 0 1 0.5 0.5] cm
/DeviceRGB {} cs
[0 0 0] sc
[0 0 0] sc
[0 0 0] SC
1 w
2 J
0 j
[] 0 d
[0 0 0] SC
1 w
0 J
0 j
[] 0 d
78 64 m
88.669998 113.769996 l
S
/DeviceRGB {} cs
[0 0 0] sc
[0 0 0] sc
[0 0 0] SC
1 w
2 J
0 j
[] 0 d
Q
q
/DeviceRGB {} cs
[0 0 0] sc
[0 0 0] sc
90.269997 119.410003 m
85.379997 113.300003 l
89.169998 114.269996 l
92.220001 111.830001 l
90.269997 119.410003 l
h
f
Q
q
[1 0 0 1 0.5 0.5] cm
[0 0 0] SC
1 w
0 J
0 j
[] 0 d
89.769997 118.910003 m
84.879997 112.800003 l
88.669998 113.769996 l
91.720001 111.330001 l
89.769997 118.910003 l
h
S
/DeviceRGB {} cs
[0 0 0] sc
[0 0 0] sc
[0 0 0] SC
1 w
2 J
0 j
[] 0 d
Q
q
/DeviceRGB {} cs
[0 0 0] sc
[0 0 0] sc
[0 0 0] SC
1 w
2 J
0 j
[] 0 d
Q
q
[1 0 0 1 0.5 0.5] cm
/DeviceRGB {} cs
[0 0 0] sc
[0 0 0] sc
[0 0 0] SC
1 w
2 J
0 j
[] 0 d
Q
q
/DeviceRGB {} cs
[0 0 0] sc
[0 0 0] sc
[0 0 0] SC
1 w
2 J
0 j
[] 0 d
Q
q
[1 0 0 1 36 94] cm
/DeviceRGB {} cs
[0 0 0] sc
[0 0 0] sc
[0 0 0] SC
1 w
2 J
0 j
[] 0 d
[0 0 0] SC
0 w
2 J
2 j
[] 0 d
q
/DeviceRGB {} cs
[0 0 0] sc
[0 0 0] sc
Q
Q
q
/DeviceRGB {} cs
[0 0 0] sc
[0 0 0] sc
41.918945 98.058594 m
42.362305 98.402344 42.628906 98.994141 42.71875 99.833984 c
41.693359 99.833984 l
41.630859 99.447266 41.488281 99.125976 41.265625 98.870117 c
41.042969 98.614258 40.685547 98.486328 40.193359 98.486328 c
39.521484 98.486328 39.041016 98.814453 38.751953 99.470703 c
38.564453 99.896484 38.470703 100.421875 38.470703 101.046875 c
38.470703 101.675781 38.603516 102.205078 38.869141 102.634765 c
39.134766 103.064453 39.552734 103.279296 40.123047 103.279296 c
40.560547 103.279296 40.907226 103.145507 41.163086 102.877929 c
41.418945 102.610351 41.595703 102.24414 41.693359 101.779296 c
42.71875 101.779296 l
42.601563 102.611328 42.308594 103.219726 41.839844 103.604492 c
41.371094 103.989257 40.771484 104.18164 40.041016 104.18164 c
39.220703 104.18164 38.566406 103.881835 38.078125 103.282226 c
37.589844 102.682617 37.345703 101.933593 37.345703 101.035156 c
37.345703 99.933594 37.613281 99.076172 38.148438 98.462891 c
38.683594 97.849609 39.365234 97.542969 40.193359 97.542969 c
40.900391 97.542969 41.475586 97.714844 41.918945 98.058594 c
h
f
Q
q
[1 0 0 1 36 94] cm
/DeviceRGB {} cs
[0 0 0] sc
[0 0 0] sc
[0 0 0] SC
0 w
2 J
2 j
[] 0 d
q
Q
[0 0 0] SC
1 w
2 J
0 j
[] 0 d
Q
q
/DeviceRGB {} cs
[0 0 0] sc
[0 0 0] sc
[0 0 0] SC
1 w
2 J
0 j
[] 0 d
Q
q
[1 0 0 1 0.5 0.5] cm
/DeviceRGB {} cs
[0 0 0] sc
[0 0 0] sc
[0 0 0] SC
1 w
2 J
0 j
[] 0 d
Q
q
/DeviceRGB {} cs
[0 0 0] sc
[0 0 0] sc
[0 0 0] SC
1 w
2 J
0 j
[] 0 d
Q
q
[1 0 0 1 87 94] cm
/DeviceRGB {} cs
[0 0 0] sc
[0 0 0] sc
[0 0 0] SC
1 w
2 J
0 j
[] 0 d
[0 0 0] SC
0 w
2 J
2 j
[] 0 d
q
/DeviceRGB {} cs
[0 0 0] sc
[0 0 0] sc
Q
Q
q
/DeviceRGB {} cs
[0 0 0] sc
[0 0 0] sc
89.265625 95.808594 m
89.511719 95.449219 89.986328 95.269531 90.689453 95.269531 c
90.755859 95.269531 90.824219 95.271484 90.894531 95.275391 c
90.964844 95.279297 91.044922 95.285156 91.134766 95.292969 c
91.134766 96.253906 l
91.025391 96.246094 90.946289 96.241211 90.897461 96.239258 c
90.848633 96.237305 90.802734 96.236328 90.759766 96.236328 c
90.439453 96.236328 90.248047 96.319336 90.185547 96.485352 c
90.123047 96.651367 90.091797 97.074219 90.091797 97.753906 c
91.134766 97.753906 l
91.134766 98.585937 l
90.080078 98.585937 l
90.080078 104 l
89.037109 104 l
89.037109 98.585937 l
88.164063 98.585937 l
88.164063 97.753906 l
89.037109 97.753906 l
89.037109 96.769531 l
89.052734 96.332031 89.128906 96.011719 89.265625 95.808594 c
h
f
Q
q
[1 0 0 1 87 94] cm
/DeviceRGB {} cs
[0 0 0] sc
[0 0 0] sc
[0 0 0] SC
0 w
2 J
2 j
[] 0 d
q
Q
[0 0 0] SC
1 w
2 J
0 j
[] 0 d
Q
q
/DeviceRGB {} cs
[0 0 0] sc
[0 0 0] sc
[0 0 0] SC
1 w
2 J
0 j
[] 0 d
Q
q
[1 0 0 1 0.5 0.5] cm
/DeviceRGB {} cs
[0 0 0] sc
[0 0 0] sc
[0 0 0] SC
1 w
2 J
0 j
[] 0 d
Q
q
/DeviceRGB {} cs
[0 0 0] sc
[0 0 0] sc
[0 0 0] SC
1 w
2 J
0 j
[] 0 d
Q
q
[1 0 0 1 44 134] cm
/DeviceRGB {} cs
[0 0 0] sc
[0 0 0] sc
[0 0 0] SC
1 w
2 J
0 j
[] 0 d
[0 0 0] SC
0 w
2 J
2 j
[] 0 d
q
/DeviceRGB {} cs
[0 0 0] sc
[0 0 0] sc
Q
Q
q
/DeviceRGB {} cs
[0 0 0] sc
[0 0 0] sc
49.918945 138.058593 m
50.362305 138.402343 50.628906 138.99414 50.71875 139.833984 c
49.693359 139.833984 l
49.630859 139.447265 49.488281 139.125976 49.265625 138.870117 c
49.042969 138.614257 48.685547 138.486328 48.193359 138.486328 c
47.521484 138.486328 47.041016 138.814453 46.751953 139.470703 c
46.564453 139.896484 46.470703 140.421875 46.470703 141.046875 c
46.470703 141.675781 46.603516 142.205078 46.869141 142.634765 c
47.134766 143.064453 47.552734 143.279296 48.123047 143.279296 c
48.560547 143.279296 48.907226 143.145507 49.163086 142.877929 c
49.418945 142.610351 49.595703 142.24414 49.693359 141.779296 c
50.71875 141.779296 l
50.601563 142.611328 50.308594 143.219726 49.839844 143.604492 c
49.371094 143.989257 48.771484 144.18164 48.041016 144.18164 c
47.220703 144.18164 46.566406 143.881835 46.078125 143.282226 c
45.589844 142.682617 45.345703 141.933593 45.345703 141.035156 c
45.345703 139.933593 45.613281 139.076171 46.148438 138.46289 c
46.683594 137.849609 47.365234 137.542968 48.193359 137.542968 c
48.900391 137.542968 49.475586 137.714843 49.918945 138.058593 c
h
54.550781 135.251953 m
53.9375 136.443359 53.539063 137.320312 53.355469 137.882812 c
53.078125 138.738281 52.939453 139.726562 52.939453 140.847656 c
52.939453 141.980468 53.097656 143.015625 53.414062 143.953125 c
53.609375 144.53125 53.994141 145.363281 54.568359 146.449218 c
53.859375 146.449218 l
53.289063 145.558593 52.935547 144.990234 52.798828 144.74414 c
52.662109 144.498046 52.513672 144.164062 52.353516 143.742187 c
52.134766 143.164062 51.982422 142.546875 51.896484 141.890625 c
51.853516 141.550781 51.832031 141.226562 51.832031 140.917968 c
51.832031 139.761718 52.013672 138.732421 52.376953 137.830078 c
52.607422 137.255859 53.087891 136.396484 53.818359 135.251953 c
54.550781 135.251953 l
h
55.160156 137.724609 m
56.525391 137.724609 l
57.966797 139.933593 l
59.425781 137.724609 l
60.708984 137.753906 l
58.59375 140.783203 l
60.802734 144 l
59.455078 144 l
57.896484 141.644531 l
56.384766 144 l
55.048828 144 l
57.257813 140.783203 l
55.160156 137.724609 l
h
61.400391 146.449218 m
62.021484 145.238281 62.421875 144.355468 62.601563 143.800781 c
62.875 142.960937 63.011719 141.976562 63.011719 140.847656 c
63.011719 139.71875 62.853516 138.685546 62.537109 137.748046 c
62.341797 137.169921 61.957031 136.33789 61.382813 135.251953 c
62.091797 135.251953 l
62.693359 136.21289 63.057617 136.805664 63.18457 137.030273 c
63.311523 137.254882 63.449219 137.564453 63.597656 137.958984 c
63.785156 138.447265 63.918945 138.929687 63.999023 139.40625 c
64.079101 139.882812 64.119141 140.341796 64.119141 140.783203 c
64.119141 141.939453 63.935547 142.970703 63.568359 143.876953 c
63.337891 144.458984 62.859375 145.316406 62.132813 146.449218 c
61.400391 146.449218 l
h
74.935547 144 m
68.824219 144 l
68.824219 143.05664 l
74.935547 143.05664 l
74.935547 144 l
h
74.935547 137.765625 m
74.935547 138.820312 l
70.072266 140.320312 l
74.935547 141.83789 l
74.935547 142.892578 l
68.824219 140.824218 l
68.824219 139.833984 l
74.935547 137.765625 l
h
79.46875 135.808593 m
79.714844 135.449218 80.189453 135.269531 80.892578 135.269531 c
80.958984 135.269531 81.027344 135.271484 81.097656 135.27539 c
81.167969 135.279296 81.248047 135.285156 81.337891 135.292968 c
81.337891 136.253906 l
81.228516 136.246093 81.149414 136.24121 81.100586 136.239257 c
81.051758 136.237304 81.005859 136.236328 80.962891 136.236328 c
80.642578 136.236328 80.451172 136.319335 80.388672 136.485351 c
80.326172 136.651367 80.294922 137.074218 80.294922 137.753906 c
81.337891 137.753906 l
81.337891 138.585937 l
80.283203 138.585937 l
80.283203 144 l
79.240234 144 l
79.240234 138.585937 l
78.367188 138.585937 l
78.367188 137.753906 l
79.240234 137.753906 l
79.240234 136.769531 l
79.255859 136.332031 79.332031 136.011718 79.46875 135.808593 c
h
85.082031 135.251953 m
84.46875 136.443359 84.070312 137.320312 83.886719 137.882812 c
83.609375 138.738281 83.470703 139.726562 83.470703 140.847656 c
83.470703 141.980468 83.628906 143.015625 83.945313 143.953125 c
84.140625 144.53125 84.525391 145.363281 85.099609 146.449218 c
84.390625 146.449218 l
83.820312 145.558593 83.466797 144.990234 83.330078 144.74414 c
83.193359 144.498046 83.044922 144.164062 82.884766 143.742187 c
82.666016 143.164062 82.513672 142.546875 82.427734 141.890625 c
82.384766 141.550781 82.363281 141.226562 82.363281 140.917968 c
82.363281 139.761718 82.544922 138.732421 82.908203 137.830078 c
83.138672 137.255859 83.619141 136.396484 84.349609 135.251953 c
85.082031 135.251953 l
h
85.691406 137.724609 m
87.056641 137.724609 l
88.498047 139.933593 l
89.957031 137.724609 l
91.240234 137.753906 l
89.125 140.783203 l
91.333984 144 l
89.986328 144 l
88.427734 141.644531 l
86.916016 144 l
85.580078 144 l
87.789063 140.783203 l
85.691406 137.724609 l
h
91.931641 146.449218 m
92.552734 145.238281 92.953125 144.355468 93.132812 143.800781 c
93.40625 142.960937 93.542969 141.976562 93.542969 140.847656 c
93.542969 139.71875 93.384766 138.685546 93.068359 137.748046 c
92.873047 137.169921 92.488281 136.33789 91.914063 135.251953 c
92.623047 135.251953 l
93.224609 136.21289 93.588867 136.805664 93.71582 137.030273 c
93.842773 137.254882 93.980469 137.564453 94.128906 137.958984 c
94.316406 138.447265 94.450195 138.929687 94.530273 139.40625 c
94.610352 139.882812 94.650391 140.341796 94.650391 140.783203 c
94.650391 141.939453 94.466797 142.970703 94.099609 143.876953 c
93.869141 144.458984 93.390625 145.316406 92.664063 146.449218 c
91.931641 146.449218 l
h
f
Q
q
[1 0 0 1 44 134] cm
/DeviceRGB {} cs
[0 0 0] sc
[0 0 0] sc
[0 0 0] SC
0 w
2 J
2 j
[] 0 d
q
Q
[0 0 0] SC
1 w
2 J
0 j
[] 0 d
Q
q
/DeviceRGB {} cs
[0 0 0] sc
[0 0 0] sc
[0 0 0] SC
1 w
2 J
0 j
[] 0 d
Q
Q
q
q
/DeviceRGB {} cs
[0 0 0] sc
[0 0 0] sc
[0 0 0] SC
1 w
2 J
0 j
[] 0 d
Q
Q
q
0 0 131 152 re
W*
q
/DeviceRGB {} cs
[0 0 0] sc
[0 0 0] sc
[0 0 0] SC
1 w
2 J
0 j
[] 0 d
Q
q
/DeviceRGB {} cs
[0 0 0] sc
[0 0 0] sc
[0 0 0] SC
1 w
2 J
0 j
[] 0 d
Q
Q
q
0 0 131 152 re
W*
0 0 131 151 re
W*
q
/DeviceRGB {} cs
[0 0 0] sc
[0 0 0] sc
[0 0 0] SC
1 w
2 J
0 j
[] 0 d
Q
Q
q
q
/DeviceRGB {} cs
[0 0 0] sc
[0 0 0] sc
[0 0 0] SC
1 w
2 J
0 j
[] 0 d
Q
Q
q
0 0 131 152 re
W*
q
/DeviceRGB {} cs
[0 0 0] sc
[0 0 0] sc
[0 0 0] SC
1 w
2 J
0 j
[] 0 d
Q
q
/DeviceRGB {} cs
[0 0 0] sc
[0 0 0] sc
[0 0 0] SC
1 w
2 J
0 j
[] 0 d
Q
Q
q
q
/DeviceRGB {} cs
[0 0 0] sc
[0 0 0] sc
[0 0 0] SC
1 w
2 J
0 j
[] 0 d
Q
Q
Q
showpage
%%PageTrailer
pdfEndPage
%%Trailer
end
%%DocumentSuppliedResources:
%%Trailer
cleartomark
countdictstack
exch sub { end } repeat
restore
%%EOF
